<?xml version="1.0" encoding="utf-8"?>
<!-- Generator: Adobe Illustrator 21.1.0, SVG Export Plug-In . SVG Version: 6.00 Build 0)  -->
<svg version="1.1" id="Laag_1" xmlns="http://www.w3.org/2000/svg" xmlns:xlink="http://www.w3.org/1999/xlink" x="0px" y="0px"
	 viewBox="0 0 36 36" style="enable-background:new 0 0 36 36;" xml:space="preserve">
<style type="text/css">
	.st0{fill:none;stroke:#292929;stroke-width:1.5;stroke-miterlimit:10;}
	.st1{fill:#292929;}
	.st2{fill:#292929;stroke:#000000;stroke-miterlimit:10;}
</style>
<path class="st0" d="M18,2C9.2,2,2,9.2,2,18c0,8.8,7.2,16,16,16c8.8,0,16-7.2,16-16C34,9.2,26.8,2,18,2L18,2z"/>
<g>
	<path class="st1" d="M18,6.8c2.7,0,4.8,2.1,4.8,4.8c0,2.7-2.1,4.8-4.8,4.8c-2.7,0-4.8-2.1-4.8-4.8C13.2,8.9,15.3,6.8,18,6.8L18,6.8
		z"/>
	<path class="st1" d="M18,29.5c-4,0-7.5-2.1-9.6-5.1c0-3.2,6.4-5,9.6-5c3.2,0,9.6,1.8,9.6,5C25.5,27.4,22,29.5,18,29.5L18,29.5z"/>
</g>
</svg>
