<?xml version="1.0" encoding="utf-8"?>
<!-- Generator: Adobe Illustrator 21.1.0, SVG Export Plug-In . SVG Version: 6.00 Build 0)  -->
<svg version="1.1" id="Laag_1" xmlns="http://www.w3.org/2000/svg" xmlns:xlink="http://www.w3.org/1999/xlink" x="0px" y="0px"
	 viewBox="0 0 36 36" style="enable-background:new 0 0 36 36;" xml:space="preserve">
<style type="text/css">
	.st0{fill:#292929;}
</style>
<g>
	<circle class="st0" cx="5.5" cy="26.3" r="3.5"/>
</g>
<g>
	<circle class="st0" cx="18" cy="26.3" r="3.5"/>
</g>
<g>
	<circle class="st0" cx="30.4" cy="8.3" r="2.1"/>
</g>
<g>
	<circle class="st0" cx="30.5" cy="26.3" r="3.5"/>
</g>
<g>
	<rect x="4" y="25.5" class="st0" width="29.2" height="1.8"/>
</g>
<g>
	<rect x="29.6" y="9.7" class="st0" width="1.8" height="14.6"/>
</g>
<g>
	<polygon class="st0" points="28.6,10.3 14.5,14.5 28.6,18.8 	"/>
</g>
</svg>
